St306 assignment 4
…
library(feasts)
library(forecast)

## Registered S3 method overwritten by 'quantmod':
##   method            from
##   as.zoo.data.frame zoo

library(fable)
global_economy

## # A tsibble: 15,150 x 9 [1Y]
## # Key:       Country [263]
##    Country     Code   Year         GDP Growth   CPI Imports Exports Population
##    <fct>       <fct> <dbl>       <dbl>  <dbl> <dbl>   <dbl>   <dbl>      <dbl>
##  1 Afghanistan AFG    1960  537777811.     NA    NA    7.02    4.13    8996351
##  2 Afghanistan AFG    1961  548888896.     NA    NA    8.10    4.45    9166764
##  3 Afghanistan AFG    1962  546666678.     NA    NA    9.35    4.88    9345868
##  4 Afghanistan AFG    1963  751111191.     NA    NA   16.9     9.17    9533954
##  5 Afghanistan AFG    1964  800000044.     NA    NA   18.1     8.89    9731361
##  6 Afghanistan AFG    1965 1006666638.     NA    NA   21.4    11.3     9938414
##  7 Afghanistan AFG    1966 1399999967.     NA    NA   18.6     8.57   10152331
##  8 Afghanistan AFG    1967 1673333418.     NA    NA   14.2     6.77   10372630
##  9 Afghanistan AFG    1968 1373333367.     NA    NA   15.2     8.90   10604346
## 10 Afghanistan AFG    1969 1408888922.     NA    NA   15.0    10.1    10854428
## # ... with 15,140 more rows
…
g.

PI <- ARIMA %>%
  forecast(h = "3 years") %>%
  mutate(PI = hilo(Employed, level = 95))
PI

## # A fable: 36 x 6 [1M]
## # Key:     Series_ID, .model [1]
##    Series_ID    .model    Month           Employed  .mean                     PI
##    <chr>        <chr>     <mth>             <dist>  <dbl>                 <hilo>
##  1 CEU05000000~ ARIMA~ 2019 Oct   N(129787, 41819) 1.30e5 [129386.3, 130187.9]95
##  2 CEU05000000~ ARIMA~ 2019 Nov  N(130048, 107165) 1.30e5 [129406.0, 130689.2]95
##  3 CEU05000000~ ARIMA~ 2019 Dec  N(129900, 208222) 1.30e5 [129005.6, 130794.4]95
##  4 CEU05000000~ ARIMA~ 2020 Jan  N(127370, 345275) 1.27e5 [126218.1, 128521.5]95
##  5 CEU05000000~ ARIMA~ 2020 Feb  N(127751, 516332) 1.28e5 [126342.4, 129159.2]95
##  6 CEU05000000~ ARIMA~ 2020 Mar  N(128312, 717918) 1.28e5 [126650.9, 129972.3]95
##  7 CEU05000000~ ARIMA~ 2020 Apr  N(129223, 945677) 1.29e5 [127317.3, 131129.3]95
##  8 CEU05000000~ ARIMA~ 2020 May N(129975, 1194828) 1.30e5 [127832.3, 132117.1]95
##  9 CEU05000000~ ARIMA~ 2020 Jun N(130887, 1460490) 1.31e5 [128518.0, 133255.3]95
## 10 CEU05000000~ ARIMA~ 2020 Jul N(130882, 1737921) 1.31e5 [128298.2, 133465.9]95
## # ... with 26 more rows
…
